{"hash":"c0164d59f2dc8fe59a8d911c430d6cb7ddfb924e","data":{"entries":{"totalCount":46,"pageInfo":{"totalPages":5,"currentPage":5},"edges":[{"node":{"path":"/team/owen_kemp/","content":"<BR>\n<div class=\"aspect-w-16 aspect-h-9\">\n<iframe src=\"https://player.vimeo.com/video/413145439\" width=\"800\" height=\"450\" frameborder=\"0\" allow=\"autoplay; fullscreen\" allowfullscreen></iframe>\n</div>\n<BR>\n<h2 id=\"why-threefold\"><a href=\"#why-threefold\" aria-hidden=\"true\"><span class=\"icon icon-link\"></span></a>Why Threefold?</h2>\n<p>I believe in decentralisation and democracy in our digital lives.</p>\n","excerpt":"I am an optimist and love doing things differently than the norm.","name":"Owen Kemp","rank":1,"bio":"Owen Kemp is an experienced executive in the IT space, having led several multi-billion dollar businesses for HP in all world-wide markets. He was responsible for HP’s world-wide Finance Industry business, launched HP in to the emerging markets of Sub-Saharan Africa and Middle East and ran HP’s subsidiary in Russia with an emphasis on improving balance of trade, R&D and corporate citizenship. Since leaving HP, Owen has focused on assisting start-ups (early to late stage) with his broad management and market experience. Among others he has worked with cutting-edge companies in Cloud- and Edge computing; Smart City technologies; Eco-Tech; Fin-Tech; Reg-Tech and Digital Marketing; Block-chain and Cryptocurrency. In addition to working with Private Equity funds in New York, Russia and Austria, he was also advising various Family Offices. He is also an advisor to the Austrian Government in attracting foreign investment to Austria. Owen is a professional management consultant, coach and mentor and has helped many companies in improving their strategy including business development, internationalisation, Go-To-Market and partnership strategy, recruitment and more. Owen has known and worked with Kristof de Spiegeleer since 2011 and is now fully on board of the ThreeFold Foundation and TF Tech.","linkedin":"https://www.linkedin.com/in/owen-kemp-b6b5a113/","websites":"https://threefold.tech","countries":["Austria"],"cities":["Vienna"],"image":{"type":"image","mimeType":"image/jpeg","src":"/climate_archive/assets/static/owen_kemp.4250cd3.31399d2e0f7b31c75c74e58bb8ec5ac9.jpeg","size":{"width":800,"height":800},"sizes":"(max-width: 800px) 100vw, 800px","srcset":["/climate_archive/assets/static/owen_kemp.1b91758.31399d2e0f7b31c75c74e58bb8ec5ac9.jpeg 480w","/climate_archive/assets/static/owen_kemp.4250cd3.31399d2e0f7b31c75c74e58bb8ec5ac9.jpeg 800w"],"dataUri":"data:image/svg+xml,%3csvg fill='none' viewBox='0 0 800 800' xmlns='http://www.w3.org/2000/svg' xmlns:xlink='http://www.w3.org/1999/xlink'%3e%3cdefs%3e%3cfilter id='__svg-blur-784726c5af2b4626bc1300a6f024d69f'%3e%3cfeGaussianBlur in='SourceGraphic' stdDeviation='40'/%3e%3c/filter%3e%3c/defs%3e%3cimage x='0' y='0' filter='url(%23__svg-blur-784726c5af2b4626bc1300a6f024d69f)' width='800' height='800' xlink:href='data:image/jpeg%3bbase64%2c/9j/2wBDAAYEBQYFBAYGBQYHBwYIChAKCgkJChQODwwQFxQYGBcUFhYaHSUfGhsjHBYWICwgIyYnKSopGR8tMC0oMCUoKSj/2wBDAQcHBwoIChMKChMoGhYaKCgoKCgoKCgoKCgoKCgoKCgoKCgoKCgoKCgoKCgoKCgoKCgoKCgoKCgoKCgoKCgoKCj/wAARCABAAEADASIAAhEBAxEB/8QAGwAAAgMBAQEAAAAAAAAAAAAABQYEBwgCAwH/xAA0EAACAQMDAgQFAgQHAAAAAAABAgMEBREABiESMRNBUWEHFCJxgSOhMkKRwQgVJTNSYnL/xAAZAQADAQEBAAAAAAAAAAAAAAACAwQAAQX/xAAdEQACAgMBAQEAAAAAAAAAAAABAgARAwQxIRJB/9oADAMBAAIRAxEAPwDRBp5R25GuTF1nDan%2bMueSNdq6P6HU4EYYEuD0lvpWqa6eKnp17vK2BpWqt%2b7Xil8IXAPN/LGqEFvtnGuvjFt2a%2b0VtaO4GipIJWM3QvUxyO6%2b%2bql3BsXblNt6epgkq5qxQOmaWVs598aFsiKwU9MMYcjKXHBLbtW77HdbhFQQzvBWygtHFMvT4mP%2bJ7Ht20femLgrjOspx5GHFXP8xGheJ2P0H8%2bR9G1ov4PbvfddkkjqlxW0XSkjHguCOCffjB9dMK1EK9%2bRgisKz/7nA1PpLQlID4AAbt1HRREKDjn865mBZcDI1yowSJ0Iw7YOvggk7hh9teNOpVVy5II4J89TVHHB1wTGI3xRnrGpaChs0qfPNKGKyLlMcd%2be/fjz0l3yzS122qn5ioV7hErEGnHUHPcKRph%2bLltkhqbdcqCnDVErGN2DSAMwAKFgvBIGcEjjSxt65iicpVszE5B4xk6i2PoP9CenrBGx/J/YlRbWqqSiEleI4n%2bWkq4lP1DC46uryHfsfxzp5/w3O8kt7nWMrB4cKZx3bLEDP2/tqNuCgrLnty%2b01AHaUqBChPTlOCR%2bedP3wa2zUbc2TTx3FTHW1TfMSqRyoIAUH3wP31TgynIpLdkW1rrhdQg8rsellHV6a6eYActryKDPUXJUe2NRaydWHQcEeQA00xMHUlypmMY%2bepGLnC/rqeo%2bgGedGY2KjjH41i60SvHIpQgS5BBC9iDkd/fVp2Hel8tdDFAa1sykhFqUUjn%2bYHGe/OPPv99RuhJk2A3RLq3RbqG7UCR3GpmpURiyyRTCM9sEc9/tjWe6m6Wrb2%2b6yhlr6l6TKtBUzKMSjHI7cEHI/fUO7bgvV%2bqJpku4lRGKSsUZBGO7cjIGAD29eNV/eqeqik8ery9HMzOIyeOrOM8jI/bONMOuHBDQ13GxsCv5L%2brNw0NstdVXxyjLYKhj/EfIaIfCzelvtW2aezXasaOWkGQz5bw0Y/SH8xyT9hrPlse71U0VuRIaGSGHxPGkLMyoeR0hiQDjtjnTHWWdLHtqVEuiu9ZLGHkMHVlsjLFic8d/tnS8OouEEX6YzZ322CDVATVa1kFTCJIJlkiYZDI2RoTViLqJE8wPkQe2s97W3JWWOT5aCtlMrHqWQ9JUjp4Urk%2bnr5nVkbd35S32lcSeHDWRgdY5CuPVSffTGxERK51PZX1pS1r9b0cLKf8AqBjHrqv917kuUt2eWVkSEv1xso5VM4H7calf55LNDLBFMiK0bB3MfQF47HOT7cY0mXNKlIJRLUJImQ2Bn%2bvtodTCUt2k7MGoCPVnh2%2baFxNdqqnqJX6yGkAQexUcHjRy52%2bnuVFM1DfVlJw6rKw/h7jjHH9tVfaa%2bKCljFRRUU4xkFowSPv56LU%2b4YGKxRWyghJ48SOL6h758tWfJPoMXdeERzs1goK9g9bUzwiNVf6JSpJxxz7ajX/Z8JpnNiuFTIY/1GpZJAxP/k%2bR0DprpRSyf6lTpPAwwGLFSp9iD%2b2vKpewdRNvrK2kqDwv6p6ftk8Y%2b%2btRu5rHINu0dPRwQyUclUVJXKy98nPbH5GPXTRsqqrrpe6WCGnihQqylnk4YBSekcd%2bP66r%2bpdkrUjkmknVZOplYEHPvnRunqrnGyPDLDCY261UZLA/2xouzlAVc//Z' /%3e%3c/svg%3e"},"private":0}},{"node":{"path":"/team/kristof_de_spiegeleer/","content":"\n","excerpt":"Nerd engineer, humanist & motivated entrepreneur.","name":"Kristof de Spiegeleer","rank":1,"bio":"Humanist & motivated entrepreneur, passionate to help make the world a better place. Kristof strongly believes there is need for a neutral internet owned by millions. We dream about a world where everyone can be happy, with respect for each other and the world’s resources. A world where we dare to love ourselves and we don’t have to be scared about our future. A world where we don’t need to be a product and we have learned to collaborate with openness and trust. <BR> More info on <a href=\"https://library.threefold.me/info/threefold#/kristof\">library.threefold.me</a>","linkedin":"https://www.linkedin.com/in/despiegk/","websites":"https://www.threefold.io, https://www.incubaid.com/","countries":["UAE","Egypt"],"cities":["Dubai","El Gouna"],"image":{"type":"image","mimeType":"image/jpeg","src":"/climate_archive/assets/static/kristof_de_spiegeleer.36a08ae.4beca8a4879254536a729b04eab83027.jpeg","size":{"width":640,"height":640},"sizes":"(max-width: 640px) 100vw, 640px","srcset":["/climate_archive/assets/static/kristof_de_spiegeleer.36a08ae.4beca8a4879254536a729b04eab83027.jpeg 640w"],"dataUri":"data:image/svg+xml,%3csvg fill='none' viewBox='0 0 640 640' xmlns='http://www.w3.org/2000/svg' xmlns:xlink='http://www.w3.org/1999/xlink'%3e%3cdefs%3e%3cfilter id='__svg-blur-a1a962a77a5370a5992602276f3fc187'%3e%3cfeGaussianBlur in='SourceGraphic' stdDeviation='40'/%3e%3c/filter%3e%3c/defs%3e%3cimage x='0' y='0' filter='url(%23__svg-blur-a1a962a77a5370a5992602276f3fc187)' width='640' height='640' xlink:href='data:image/jpeg%3bbase64%2c/9j/2wBDAAYEBQYFBAYGBQYHBwYIChAKCgkJChQODwwQFxQYGBcUFhYaHSUfGhsjHBYWICwgIyYnKSopGR8tMC0oMCUoKSj/2wBDAQcHBwoIChMKChMoGhYaKCgoKCgoKCgoKCgoKCgoKCgoKCgoKCgoKCgoKCgoKCgoKCgoKCgoKCgoKCgoKCgoKCj/wAARCABAAEADASIAAhEBAxEB/8QAGgAAAgMBAQAAAAAAAAAAAAAABQYCBAcDAP/EADQQAAIBAgQEBAUDAwUAAAAAAAECAwQRAAUSIQYTMUEiUWFxBxSRocGBsdEjUnIVFiQyQv/EABkBAAMBAQEAAAAAAAAAAAAAAAIDBAEFAP/EACURAAIDAAEDBAIDAAAAAAAAAAECAAMREiExQQQTI2EiMlGBwf/aAAwDAQACEQMRAD8APcI1S0FDNSVImSJY7OtyNKqSbMO1rg6hutwegOKmdRk5BUq1MEMvMdHWwJttcgbXtcketxtg9wnmck1BUPUwks0JnfYeNi12cMdg1yQAbBt174E1WWUAjj%2bWWRebBqYs9o2Y9NJO69rg9LW94mIDaZeg3oIiZ1HzOCYHIOoyRAHzARjf64K55OkkVDIG8McKNv0RiB4mv/5BufcDHWiyxazI0FasiwUkyiRVFixBAC%2bl9/YXxfyLKcvz5qzO8xhDa5jTwxqCVVE2ACg74eWA6nxsOusueI8yjwBoqpK%2bqdjoipuTTrcM6gqdbkd2JP1b0xJ6SNZGQkqTToxDHUpBKKynzuAN/W%2bKuaUKcOcR0MuXOUpK8PG6K17XFtQ8iL4MVlQifNSiKMAwmEBlOoKkgQiw9APscY28%2bQ7GA9fD8T4i/wAM0bVlfVCGYU4SfTEGAIuFBKnv4gDbrg/nDVNBkOb8iaUU7RpDFdiSWZz37jwkgdBgZwXFHPmFeui7pVDQdN/EwAG/a1ifXfyw1fEGFEyrLaOJbBy9S3qqgIv3bBWH5uMXWNTYD4PgrJqCKmpGdp2SVpl1FnmXYkbdunh/OI1NRMyxUaCWlhGqVjSuhVQwIEessSp2Isd/7rdcQ4ZqI8tpTNLrgrEZzG6NflnSoOu3TuNrW7dMBkrairNbM2uBakLqiChEKXPUAdbD7m98Cy6xMzcAhZ8yny/hiFdLSKtRJJUFvDfT0uOo6jbzGD3CNLr4ToB/RRQXeRZQd2Lahe2E6Knq8zy6rip4GkqZAoWC%2b7eKzADqDcY0Hhfhpso4fGWZgUeZL8wHcAk3A%2b4wq/FT72dD0ba39RJ44Rhko5Eka1FFUh4mj20ra9hf36Y9S1RzWio6w6YZBMyuf%2b2kutl1D%2b0slvdhjl8RcsZ5qWmpISxNRbRGvU27%2bW564nw%2bq0GXJS1oaP5hWp2aQWKtrUX27BtP0OGpntgjvF%2bsb5CPoS78NIjPxVmEW/hlD29bW/nDVx0DNmsth4F5NHH%2br6m/bAT4SQH/AHdnLuLGMLf33H84P8ULzeJcvgXpzg59TufyMZefmktP6CImVBGkZTHCqlkCB%2boI2Nz9t/M4OcMZPDn3FVQ1XzCIYRzUIs2x0gEjbf8AnCbVzCF5qiDT8oXRQUNy4sTq%2b3740b4TTPJX5lzGLMYkP37Ya6%2bYpTvSaFR0NPRG9NDHGp2bSoBPuep/XEc1y%2bWvIMRjV1WwJ6uewP4OLbbWv0Jtiavpb0wkgMMMerFDyXvFTJMl5k089XCHjdDGIztdtQJJ9iBbvirmHAlLKYGpWMKxyiQxSf1FItut%2bov574dGNtN%2b4uffHQFS2na5F8eUcRghW2GxuRmVfDKGWi4m4liql0yoYy49fFi7UyGbjSnNidGpreoA/gYI5ggy/i/M50jIFTRwn/Ng7L%2b1sDIyI%2bKpuY9zT0oaV/JmvfA2Hk5b6/yCg4rkzCNSlMITZQbsY4xY9LC3Yb9vbDDwFny0OaTfKhI2qkCsx8W43NvXoN/XGfVlY6uA00TugCaYidJA9fXqfbHTKqxv9QowiFGE2tig3AJH47YtNZZTsmrcBgTNoreIcwpqmOU1czxK4LqTcFb7/bDVBxRlM0etK2Mqe4DH8YybMs2SKokpqo6JkYoQ3S4OBLZ5PAjR0tesC%2bSeIfTE61tmTrWrW%2bMOk3WHiDLJrFa%2bm27Fwp6%2buAHEfE3/ACTS5fVRcox2lddyN9gGv7/bGTjiV4woqwsiHbnItx%2boPTFg8S0qpdZIwP8AG2CNTfxFIK1bdhHirP6uNqCohqXb5K3JXa1ztpPmDYGxN/bFzhWsfMKKpqsxqVZ6llapdOioBso8y1zt64UcwziDMDGsIVimp2D7qbAkXHlfFXh%2bumo8sqSvKT5nVpDCyqw8z7X%2bmGCklM8ya%2bxfd1e0/9k=' /%3e%3c/svg%3e"},"private":0}},{"node":{"path":"/team/jan_de_landtsheer/","content":"\n","excerpt":"Techie at heart, having lived professionally in the tech basements of the Internet.","name":"Jan De Landtsheer","rank":1,"bio":"Wandering the Net since it's inception (www wasn't even a thing back then... and yes, I'm that old), I have experienced the (r)evolution of the Internet in steps going backward in terms of accessibility, bias and width. It seems to me, by the effect of personalized search, directed ads, filtered and hidden information, that the Internet has become so much smaller, narrowing and enforcing biased views. That needs to be addressed. The Net needs to become that vast resource of unbiased knowledge, so that people can start thinking for themselves again. That's why I'm here, to be part of a group of guardians who's purpose is to equalize all views so that people can really understand viewpoints instead of being just judgemental. Techie at heart, having lived professionally in the tech basements of the Internet, I can help and I will help. Education for all is the only path to a better world. Count me in.","linkedin":"https://www.linkedin.com/in/jand2/","websites":"https://threefold.tech","countries":["Belgium"],"cities":["Gent"],"image":{"type":"image","mimeType":"image/jpeg","src":"/climate_archive/assets/static/jan_de_landtsheer.36a08ae.3b3875a84383c0c493d0f87f86fe8ea0.jpeg","size":{"width":640,"height":640},"sizes":"(max-width: 640px) 100vw, 640px","srcset":["/climate_archive/assets/static/jan_de_landtsheer.36a08ae.3b3875a84383c0c493d0f87f86fe8ea0.jpeg 640w"],"dataUri":"data:image/svg+xml,%3csvg fill='none' viewBox='0 0 640 640' xmlns='http://www.w3.org/2000/svg' xmlns:xlink='http://www.w3.org/1999/xlink'%3e%3cdefs%3e%3cfilter id='__svg-blur-fa4ba1a9c33701a089607a0445669cec'%3e%3cfeGaussianBlur in='SourceGraphic' stdDeviation='40'/%3e%3c/filter%3e%3c/defs%3e%3cimage x='0' y='0' filter='url(%23__svg-blur-fa4ba1a9c33701a089607a0445669cec)' width='640' height='640' xlink:href='data:image/jpeg%3bbase64%2c/9j/2wBDAAYEBQYFBAYGBQYHBwYIChAKCgkJChQODwwQFxQYGBcUFhYaHSUfGhsjHBYWICwgIyYnKSopGR8tMC0oMCUoKSj/2wBDAQcHBwoIChMKChMoGhYaKCgoKCgoKCgoKCgoKCgoKCgoKCgoKCgoKCgoKCgoKCgoKCgoKCgoKCgoKCgoKCgoKCj/wAARCABAAEADASIAAhEBAxEB/8QAHAAAAQQDAQAAAAAAAAAAAAAAAgAFBgcBAwgE/8QAMRAAAQMDAwIEBAUFAAAAAAAAAQIDBAAFEQYSITFhE0FRcQcUIjIIgZGhsSSCwdHh/8QAGQEAAwEBAQAAAAAAAAAAAAAAAQMEAAIF/8QAHBEAAwEBAQEBAQAAAAAAAAAAAAEDEQIxIRJB/9oADAMBAAIRAxEAPwDpZQ4pJH0iiI4pJHAoGBxSxWuZIbiRnH3SdiBngcnsO9V7qDUd0cJ8JwxUH7UIPOPfzNLpRT9GTl1R4ixSKxiqTia2vVqkBbkhUloH6mnjkEe/UVbenbzFv1ranQyQlX0rQeqFDqk0J15p4dVh1L095FCRW0ihIpok3qHFJP2isnpST9oomGbUElhIZYU4grKwoozzgDjioJruazEgkhpTiwCpKEYHvyeAKfb6w7F1S46vb8rKb388krCQMdhhP71GNdwI8yE6%2b84AlCcp3YITx6Hio69buovjwlmP0rUXhq6JccRHfZCQSouAEcD1GanHwKv8d%2b/XG3Ml/Y4z4idyCEKUg84Prgmodp6HAbtFyAWltT7Z2%2bIoI8VOOSB5dqcvgDFjxdYf0hKkht1snHUY69%2bg571zJJdJ4Mvr4a06KNCaOhNXHmG89KwOgoj0rA6CiYb73DalQXFONpU40kqbUeqTVGfEWSt20ymWllJWkcYzyFDI/SrZa1dbbyiWxaVPPhp1UdTxbKGypJwrao/djGMjjvVa6ph7pLyUHBUdyT5A1Hfpforin%2bSBX0NsWqKzMhsyFkDa6mQU7u5TsOP1qbfhutT4mXi4yANrRLAUlOElZxnH9o/eq9u65L8tMVtCFDd%2bQ9T2rp3RNrg2XTEGDbHm5DDaNxeQQfFUrlSzj1J/iu5LfoLd/MQ90JoqE1QShypDUZlTr7iW209VKNQXU2qfFadjRF%2bEzt%2bpagcrHmPamTV9/lOFaluHw8/SAMBH/e9QV65OOrwp1SgRg%2b1NXOenG6eRtVz0rLcmaZAkQVKKnrY6roT1LSvL2/mtqNZwdQNLSytTEttW5cd8bXEHzGPP8qwp5xwdcDPHeo7fLPGuziFOtAvN5IWk7XPbcOR/FJtDmn3xj52fHz%2bCul6g2rxJJWHXMlLaEnKnFegqQaNutxtlqg7nnGZaGxu8NWNvJO3vgHHNRa12G3RHkymELdWeUuvK3KT6jnpUgbOPLp17VpRU0Ctf2y2tO/EEuvNsXdKNquPmEDGO5H%2bqsLIIBBBB6EVzUh7YCVYSACRV/wClZPzWm7c6TkllKT7jj/FMawVp/9k=' /%3e%3c/svg%3e"},"private":0}},{"node":{"path":"/team/ewald_weizenbauer/","content":"\n","excerpt":"Ewald is an internet and mobile technology expert who worked at Hewlett Packard, Silicon Graphics/SGI, and co-founded Austria's first Internet service provider, EU-Net.","name":"Ewald Weizenbauer","rank":1,"bio":"Ewald is an internet and mobile technology expert. Initially trained as an electrical engineer at the technical university in Vienna, he worked for Hewlett Packard, Silicon Graphics/SGI, co-founded Austria’s first internet service provider EU-Net (later sold to KPN), co-founded Aspective Ltd, a mobile CRM application service provider (later sold to Vodafone Group Plc). In 2006 he joined Global Equity Partners as a partner, where he focused on early-stage technology investments, helped companies to grow and investors to realize successful exits. Since 2012 Ewald is an active angle-investor in the sector of disruptive and sustainable internet technology. Ewald is a father of 2 boys and enjoys mountaineering, golf, music and reading.","linkedin":"https://www.linkedin.com/in/ewald-weizenbauer-034132/","websites":"https://threefold.io/","countries":["Austria"],"cities":["Vienna"],"image":{"type":"image","mimeType":"image/jpeg","src":"/climate_archive/assets/static/ewald_weizenbauer.6ef341c.a4ad469b084fd54e7e4406b39d221a7e.jpg","size":{"width":600,"height":600},"sizes":"(max-width: 600px) 100vw, 600px","srcset":["/climate_archive/assets/static/ewald_weizenbauer.6ef341c.a4ad469b084fd54e7e4406b39d221a7e.jpg 600w"],"dataUri":"data:image/svg+xml,%3csvg fill='none' viewBox='0 0 600 600' xmlns='http://www.w3.org/2000/svg' xmlns:xlink='http://www.w3.org/1999/xlink'%3e%3cdefs%3e%3cfilter id='__svg-blur-a136de6061b94540abed37c500badc30'%3e%3cfeGaussianBlur in='SourceGraphic' stdDeviation='40'/%3e%3c/filter%3e%3c/defs%3e%3cimage x='0' y='0' filter='url(%23__svg-blur-a136de6061b94540abed37c500badc30)' width='600' height='600' xlink:href='data:image/jpeg%3bbase64%2c/9j/2wBDAAYEBQYFBAYGBQYHBwYIChAKCgkJChQODwwQFxQYGBcUFhYaHSUfGhsjHBYWICwgIyYnKSopGR8tMC0oMCUoKSj/2wBDAQcHBwoIChMKChMoGhYaKCgoKCgoKCgoKCgoKCgoKCgoKCgoKCgoKCgoKCgoKCgoKCgoKCgoKCgoKCgoKCgoKCj/wAARCABAAEADASIAAhEBAxEB/8QAGwAAAgMBAQEAAAAAAAAAAAAABAYCAwcIBQH/xAAwEAABAwMCBAUDAwUAAAAAAAABAgMEAAURBiEHEjFBEyJRcZEUYYEkMnJigqLh8P/EABQBAQAAAAAAAAAAAAAAAAAAAAD/xAAUEQEAAAAAAAAAAAAAAAAAAAAA/9oADAMBAAIRAxEAPwDmID7VMD7CoJqdB9CSf2pz%2bKa9O6GvN3CVNcsZB3Bc6/FA6PY8e5JSW%2bZPMDnHp/2a3ewJDQbAI2oE6BwW1FIKlNXRgHHXKk0n660VddNyVN3IBxxKOcOJHlcTncpPfHf0zXXlmUBHbdSpBynfBrxuKtvYm6YlPONt88dpTraiOh5SD8jag4lWmqVDANFOfFDr70E0mp5qkGpA0GgaLtr6FQbgjH0xScgd1ZIOfiny4s3D6b9AlvChsVlWM/270jcPLrFTanbe%2b%2bESlPjwWznzJO%2b3sc1qMKX9MwlalABKc79KCejF3RKJ0BTp%2bpEda43UArAyMg77gVRIud5d0NqgzVlxpqMvmWXDzA7eUpP7d89%2b1Rsd5eRqlh2OtoeIeRS1pJSnP%2bs17XGq9FnQFwQ0GwZS0xVlvorKhk/AoOXntiaFWdzRTu%2baGUNzQVjNTTmi7ZbZl0loi26K9Kkr/a0ygrUfwK03TfArV91KFz2WLQweqpa8rx/BOT84oM/0s087qGCIycrS4F/YJTuSfxmtjkP%2bKlDRSfDWQlQPpmtC0TwTsWnVKedlSJ9xW0tnxl%2bRtvnSUkhA9%2b5NIojLjyX4U5splRnCy6k9QpPf87Ee9AbYrRb13FJVIhNNFWFNrZSvJ9BmlXjZdExxH0/GYU2wlwywSCAUnITyk9R1pphQGkOGU%2bVKbb82D3rUtbcFImt9K2YvS3LffoUUNpd5eZCgTzcjieuxJ3B2369KDilw1Qr2p74g8LtU6HdWbxb1LhA%2bWdGy4wfdWPL7KApEIoO6%2bG2g7TofT8dm3MpXOeaQuVLUB4jqiASM9kjOwG1MzrKerZKD9qshq5o0UdlRmj/gKksYoBmyUqHP8ik2%2baIYu7i5QUWJaV8v1GM%2bKntzjuQOhp2U2So0baIhkeNk4AwN6BX0lpSxxJbTUtlUt9vldS46fKFA7eQbfOdxWlLfbSBlQ9qW49vEN9x1bzaCs7q5t8e9GiXbY%2b7stgfycFB6bhbktLbWylxpY5VJcGUqHoR3rHeK/AOw6siOzdPMs2a%2bBOUllISw8fRaANj/AFDf1zWnr1FZ2h57nCQPu6BVB1np1lGXL7bQPvITQf/Z' /%3e%3c/svg%3e"},"private":0}},{"node":{"path":"/team/christopher_hutton/","content":"\n","excerpt":"A serial entrepreneur and technology fanatic.","name":"Christopher Hutton","rank":1,"bio":"A serial entrepreneur and technology fanatic for 25 years now. Always researching tech trends and looking for new technologies to introduce to Africa.","linkedin":"https://www.linkedin.com/in/chris-hutton-a3034777/","websites":"https://threefold.tech","countries":["South Africa"],"cities":["Capetown"],"image":{"type":"image","mimeType":"image/jpeg","src":"/climate_archive/assets/static/christhoper_hutton.36a08ae.c2567895759bd9248d836d5537003ba0.jpeg","size":{"width":640,"height":640},"sizes":"(max-width: 640px) 100vw, 640px","srcset":["/climate_archive/assets/static/christhoper_hutton.36a08ae.c2567895759bd9248d836d5537003ba0.jpeg 640w"],"dataUri":"data:image/svg+xml,%3csvg fill='none' viewBox='0 0 640 640' xmlns='http://www.w3.org/2000/svg' xmlns:xlink='http://www.w3.org/1999/xlink'%3e%3cdefs%3e%3cfilter id='__svg-blur-cf0421b8eb93407aedd6564ce45d717e'%3e%3cfeGaussianBlur in='SourceGraphic' stdDeviation='40'/%3e%3c/filter%3e%3c/defs%3e%3cimage x='0' y='0' filter='url(%23__svg-blur-cf0421b8eb93407aedd6564ce45d717e)' width='640' height='640' xlink:href='data:image/jpeg%3bbase64%2c/9j/2wBDAAYEBQYFBAYGBQYHBwYIChAKCgkJChQODwwQFxQYGBcUFhYaHSUfGhsjHBYWICwgIyYnKSopGR8tMC0oMCUoKSj/2wBDAQcHBwoIChMKChMoGhYaKCgoKCgoKCgoKCgoKCgoKCgoKCgoKCgoKCgoKCgoKCgoKCgoKCgoKCgoKCgoKCgoKCj/wAARCABAAEADASIAAhEBAxEB/8QAGwAAAwADAQEAAAAAAAAAAAAABAUGAgMHCAH/xAA0EAACAQMCAwUGBQUBAAAAAAABAgMABBEFIQYSQQcTIjFhQlFxgZGhFDIzcsEIFSNiorH/xAAZAQADAQEBAAAAAAAAAAAAAAABAwQFAgD/xAAfEQACAwACAwEBAAAAAAAAAAAAAQIDEQQhEhMxQSL/2gAMAwEAAhEDEQA/APNalYoC7eQ6UtkleRyxJGegPlRt7n8NGPe1aoYOcgKKCCfLS3muG8HMaoNM4bnu5EXvQhJ8zWWkR92oRlFXOgxrGyuQM5qa65x%2bF3G40bO5C6z7NrqWUv8Ai4xnrynf5VO6lpU2mXstpdxhJYzgjofcR6V6O0GT8VbAJaKQB%2bZfM1EdsOgSLDaausWMHuZcdB5qT9x86VVdJv8Ap/Rl/Hgo7FZhx0wj3CtEkPpTUx5rRLHjpVaZn%2bIlu05rMMPZbJojSwCjHGSOlbIEWSEowypyDVDDJbobdZ4lMTAoGVNl9xJFc2T8R1FXnr3DXpMazZ5xgjpVLp0bIYi/ecjthUjGWf09B60DY26211JH16Zqr4U7xLoP5gnCmobJ69NOivFn6GxazqOh3kLmKVbN8ExtOHI%2bg267Ux4ujvdU0rU9StHjubNoDyxFCWRdslTnGRvnaiO0CW1isbK0hiHeOeaaU%2bIxnHQe%2biuzu4On6e0d7BKbO5cQIJMeIEHJwDXHxpjnDYtM4fy0PNgCirt0E8gh/T5jy/DO32oCYsc7bVoJmJgFaDwD500sLp7W6izhoGPI6npnqKW2g/xCjVilaCaSKJpRCveOFGSFBGT8qM1vR6qTg1JFWpVnXl2wOp/mrHhMRQ3FtJLkxK3K/wDrnyP1qMtyrwI43GMgimOm3M0MpaMEqdip61nyjqw13LHpdmwlh1fvpne6tmfAEagFT%2b7fNVHE8tpacP3epiJo47WFjEr5PjKMo6DfLCud6FqOp212yxq81vI2SBvimPbDxTC/DVpphgeKW5ZX7xlKgoh336%2bLArqMdeC7LEo6zkMaDAB86xmiyNqzidT7S/Wt/KGGzL9ae3hFFaIbTAgBJwBnNUfZNdtdcXzc5AiNuyIh9rcVEXV3mAW8ROfbP8U14T1uLRLlJ5rRpuRw3eRScsiDrjOx%2bdVpd6SN/h3W44BtrhjJpsxs2fdoSvNET6DzX5fSstN7PNbSQuIEuYhuWtnD/wDOzfanfBPGOg8RwxRWd%2bgucfpzDu3HoQf/AEEirgLNZScyO0bjcEHFCXHjLsbDlTh19JTTOHI7XHfRTPcFgiQgYZ2PkMU47d%2bz4aj2W209sq/3PQ0M4CjZ0b9VPh5EftrmHbl2i6nqGtRaJY38kENpCq3XdHlMkp8RyRucAgYzjzq6/p/4w1nXba64e4gcajYGHljldsyIhypVifzDf4ihVR6312C6/wBiXWHlwRK6CSNiFGzIfMH3UNOg36fCn3G%2bmPw5xFfRbNHDcPbzY3GVYgN9qSTgHDocqRkU3BB//9k=' /%3e%3c/svg%3e"},"private":0}},{"node":{"path":"/team/adnan_fatayerji/","content":"<BR>\n<div class=\"aspect-w-16 aspect-h-9\">\n<iframe src=\"https://player.vimeo.com/video/413151305\" width=\"800\" height=\"450\" frameborder=\"0\" allow=\"autoplay; fullscreen\" allowfullscreen></iframe>\n</div>\n<BR>\n","excerpt":"Honored to be part of a team that has the potential to make the world a better place..","name":"Adnan Fatayerji","rank":1,"bio":"Honored to be part of a team that has the potential to make the world a better place by connecting billions of people to a new, accessible, data sovereign and environmentally conscious internet. A social entrepreneur, plant based warrior and a sovereign digital economy advocate with a passion for music creation and collaboration. Adnan has been based in the United Arab Emirates for the past 20 years, during which he has built successful grass-root businesses and invested startups in various sectors. At ThreeFold Adnan is responsible for driving the ThreeFold Foundation Ecosystem. Adnan is also the CEO of the @Mazraa Cooperative which is a founding farm and P2P Cloud Capacity provider on the ThreeFold Network.","linkedin":"https://www.linkedin.com/in/adnansf/","websites":"https://threefold.io/, https://www.mazraa.io/","countries":["UAE","Spain"],"cities":["Dubai","Ibiza"],"image":{"type":"image","mimeType":"image/jpeg","src":"/climate_archive/assets/static/adnan_fatayerji.36a08ae.7ba2b95e75c9fab15be532f16ac0d644.jpg","size":{"width":640,"height":640},"sizes":"(max-width: 640px) 100vw, 640px","srcset":["/climate_archive/assets/static/adnan_fatayerji.36a08ae.7ba2b95e75c9fab15be532f16ac0d644.jpg 640w"],"dataUri":"data:image/svg+xml,%3csvg fill='none' viewBox='0 0 640 640' xmlns='http://www.w3.org/2000/svg' xmlns:xlink='http://www.w3.org/1999/xlink'%3e%3cdefs%3e%3cfilter id='__svg-blur-0fb1bd0596f60e83bb4c821a50f89f1a'%3e%3cfeGaussianBlur in='SourceGraphic' stdDeviation='40'/%3e%3c/filter%3e%3c/defs%3e%3cimage x='0' y='0' filter='url(%23__svg-blur-0fb1bd0596f60e83bb4c821a50f89f1a)' width='640' height='640' xlink:href='data:image/jpeg%3bbase64%2c/9j/2wBDAAYEBQYFBAYGBQYHBwYIChAKCgkJChQODwwQFxQYGBcUFhYaHSUfGhsjHBYWICwgIyYnKSopGR8tMC0oMCUoKSj/2wBDAQcHBwoIChMKChMoGhYaKCgoKCgoKCgoKCgoKCgoKCgoKCgoKCgoKCgoKCgoKCgoKCgoKCgoKCgoKCgoKCgoKCj/wAARCABAAEADASIAAhEBAxEB/8QAHAAAAQUBAQEAAAAAAAAAAAAABwEDBAUGAAII/8QANBAAAgECBAMGBAUFAQAAAAAAAQIDBBEABRIhBjFBBxMiUWGBMnGRoRVCQ7HBFCMzUtHw/8QAGQEAAwEBAQAAAAAAAAAAAAAAAgQFAwEG/8QAJhEAAgICAgEBCQAAAAAAAAAAAQIAAwQREiExIgUTFFFSYXGhwf/aAAwDAQACEQMRAD8Ak0OYUdeyd6xppx8JY2sfRsXqU041AMtpB4nXk/qR5%2boxT9o2SxZHlUVXRxAM8yxsOljfe2IvBNc8FJUy1U7CJE7yzHwpbnbyxlbjlDppvTkLYNrIjTU/DdPVS1bSNXtKVgRfjYj5/l8z0xmK/tCzipnWmqIKOACxVWgY2HTxar26cvbFPJmtXxpxPLUyMI6XVp8O1xzAHtzwSsn4OyifuJ6iF9aEEsGIv6HGA4I3qG40FexfSY5lHFFLm0Zd2SmrJUKGBmvvsNj1GxwZODYFq%2bHKKRbmylTfncGxwMuIOEsuqqFpqGnSCrgGuJ4hp3G%2b/nyxreyTNK%2bpzmWhZjJlrUgqI9X6ZuPCPr9sNU2gPyXqIZ2Mz1hGP3m7GXDyw4uXgYue6GF7sDDRvMlDAEBnbJUUUnBzrHOjS9%2bhRRzNm3wCOKc6qKXJJ6Okuquh76TyW%2byj1ODB2kUYfhyskSJiykFQSCeY3HXAN40US5d3cKM9UzcrW0jfrhMXG5STKdNfu%2box2cUVcIzURamDgGNQbEb2vgx8K1%2bbpnEeVV7LJHJE0gYAFrgbDa1/pgWdmNa1L3UDtbuWKtY3Fib7ffBQ4TzOKTjJqx4pDEYzHGVIsD03PU4VtO2O5Xx10oIl/k1fnU9dIK2AilB0rZFG3rvf7Ytuw/OGj4nrsqrLRztG2lL/AJlP/N8SmrYkmkll0hEXWWPJVAuSfvge9nlVFmnG%2bcZqJxHTSVV4JyCq6SNOs%2bWw%2b%2bM0ZlOx3qcylHHufVGpbX1C3Lnht6qBFZmmjCjmdQ2wNajLGbSPxhTCTqCoST8748xUCBZEkqA6m4W2xPzOCOa30/uIpjWN3qA/OaHM8wVoRWyR3YeJnJJHyGEqeDI6ygmpp6gkyrYMFsVPTrjZU1CW0s24tsPLEoUthvyOPT/C1KNeZMW1/JMBmX5PLwzmsiI7TMmkyent8sETgzL4ppWqR4UZwPjI1E7iwGNNVZDT1j97JGqy8tduY9cNZNwfU0OY/wBRE6CjFyyGTwj1xEycS1CQBsS1i5Veh3qU/aBxFHksj5bSjXmVbGqOq3YRRE779WIuAPc498PZNVZFkstXDCWjYHTZfFHqsLHzF7Yu5cshnnqa2WFWcyBo2ZbkAooH7ffGjrgIaKopgoYNEYwPM7/wCfbDdPs0INue4lfmmwnjGctqaWpoKNZaFIpJCFeJo7EHlzI6410PCk6Sq6U9KZFS6AsoKH2GAXmlfXrTMhlm7u3wBza2E4H7X83pOIphPJHWpVMsfjNiCNlIPTCeXUKTuvv8/wAnKrmcDloQhQWCDb0x0vik0rzHliHTzgWF9sS%2bZDLzx6QSbuTctiMiNq56gMPcRyrBTQ0yGyu4ZgP9EBc/WwGFoSAF6G98Q84ZamdSD/lcU0XuQXPsoOA1ttmH4E4RBoni6hkQ%2byLf%2bcP5wgRa2ff%2b1SyPvyF1I%2bu5wlCe8JlP6srOPl/4YdzSZZcuzobFRC0Y9lwL/KEsE1S/egi/PAwp4vwbPZY5okliif4XPxg8jf5b4JtSosLffGM44o5FFPXU8asVPdygjp0P7jE/JrDLuGh0Z//Z' /%3e%3c/svg%3e"},"private":0}}]},"memberships":{"edges":[{"node":{"id":"foundation","title":"foundation","path":"/team/memberships/foundation/"}},{"node":{"id":"tech","title":"tech","path":"/team/memberships/tech/"}}]}},"context":{}}